Collect 002.csv

Record Length,2500,Points,-125.0000000E-3,4.00000019E-3,,Record Length,2500,Points,-125.0000000E-3,3.79999995,
Sample Interval,99.999997474E-6,s,-124.8999983E-3,-16.0000008E-3,,Sample Interval,99.999997474E-6,s,-124.8999983E-3,3.79999995,
Trigger Point,1.2500001E3,Samples,-124.7999966E-3,-18.0000011E-3,,Trigger Point,1.2500001E3,Samples,-124.7999966E-3,4.00000000,
,,,-124.7000024E-3,-18.0000011E-3,,,,,-124.7000024E-3,4.00000000,
,,,-124.6000007E-3,-20.0000014E-3,,,,,-124.6000007E-3,3.79999995,
,,,-124.4999990E-3,-20.0000014E-3,,,,,-124.4999990E-3,3.79999995,
Source,CH1,,-124.3999973E-3,-20.0000014E-3,,Source,CH2,,-124.3999973E-3,3.79999995,
Vertical Units,Volts,,-124.3000031E-3,-18.0000011E-3,,Vertical Units,Volts,,-124.3000031E-3,4.00000000,
Vertical Scale,50.00000237E-3,,-124.2000014E-3,-22.00000174E-3,,Vertical Scale,5.00000007,,-124.2000014E-3,4.00000000,
Vertical Offset,0,,-124.0999997E-3,-20.0000014E-3,,Vertical Offset,0,,-124.0999997E-3,4.00000000,
Horizontal Units,s,,-123.9999980E-3,-22.00000174E-3,,Horizontal Units,s,,-123.9999980E-3,4.00000000,
Horizontal Scale,24.99999937E-3,,-123.9000037E-3,-22.00000174E-3,,Horizontal Scale,24.99999937E-3,,-123.9000037E-3,4.00000000,
Pt Fmt,Y,,-123.8000020E-3,-18.0000011E-3,,Pt Fmt,Y,,-123.8000020E-3,4.00000000,
Yzero,-160.00000000E-3,,-123.7000003E-3,-18.0000011E-3,,Yzero,-3.96000000,,-123.7000003E-3,4.00000000,
Probe Atten,1.000000,,-123.5999987E-3,-20.0000014E-3,,Probe Atten,1.000000,,-123.5999987E-3,4.00000000,
,,,-123.4999970E-3,-20.0000014E-3,,,,,-123.4999970E-3,4.00000000,
Note,TDS 210 - 12:25:32 PM   3/20/2026,,-123.4000027E-3,-18.0000011E-3,,Note,TDS 210 - 12:25:32 PM   3/20/2026,,-123.4000027E-3,4.00000000,
,,,-123.3000010E-3,-20.0000014E-3,,,,,-123.3000010E-3,4.00000000,
,,,-123.1999993E-3,-18.0000011E-3,,,,,-123.1999993E-3,4.00000000,
,,,-123.0999976E-3,-18.0000011E-3,,,,,-123.0999976E-3,4.00000000,
,,,-123.0000034E-3,-22.00000174E-3,,,,,-123.0000034E-3,4.00000000,
,,,-122.9000017E-3,-20.0000014E-3,,,,,-122.9000017E-3,4.00000000,
,,,-122.8000000E-3,-20.0000014E-3,,,,,-122.8000000E-3,4.00000000,
,,,-122.6999983E-3,-20.0000014E-3,,,,,-122.6999983E-3,4.00000000,
,,,-122.5999966E-3,-22.00000174E-3,,,,,-122.5999966E-3,4.00000000,
,,,-122.5000024E-3,-18.0000011E-3,,,,,-122.5000024E-3,4.20000029,
,,,-122.4000007E-3,-20.0000014E-3,,,,,-122.4000007E-3,4.20000029,
,,,-122.2999990E-3,-20.0000014E-3,,,,,-122.2999990E-3,4.20000029,
,,,-122.1999973E-3,-18.0000011E-3,,,,,-122.1999973E-3,4.20000029,
,,,-122.1000031E-3,-20.0000014E-3,,,,,-122.1000031E-3,4.20000029,
,,,-122.0000014E-3,-20.0000014E-3,,,,,-122.0000014E-3,4.20000029,
,,,-121.8999997E-3,-20.0000014E-3,,,,,-121.8999997E-3,4.20000029,
,,,-121.7999980E-3,-20.0000014E-3,,,,,-121.7999980E-3,4.20000029,
,,,-121.7000037E-3,-20.0000014E-3,,,,,-121.7000037E-3,4.20000029,
,,,-121.6000021E-3,-18.0000011E-3,,,,,-121.6000021E-3,4.20000029,
,,,-121.5000004E-3,-16.0000008E-3,,,,,-121.5000004E-3,4.40000010,
,,,-121.3999987E-3,-18.0000011E-3,,,,,-121.3999987E-3,4.20000029,
,,,-121.2999970E-3,-18.0000011E-3,,,,,-121.2999970E-3,4.20000029,
,,,-121.2000027E-3,-18.0000011E-3,,,,,-121.2000027E-3,4.40000010,
,,,-121.1000010E-3,-20.0000014E-3,,,,,-121.1000010E-3,4.40000010,
,,,-120.9999993E-3,-20.0000014E-3,,,,,-120.9999993E-3,4.20000029,
,,,-120.8999977E-3,-20.0000014E-3,,,,,-120.8999977E-3,4.40000010,
,,,-120.8000034E-3,-20.0000014E-3,,,,,-120.8000034E-3,4.40000010,
,,,-120.7000017E-3,-18.0000011E-3,,,,,-120.7000017E-3,4.40000010,
,,,-120.6000000E-3,-20.0000014E-3,,,,,-120.6000000E-3,4.40000010,
,,,-120.4999983E-3,-20.0000014E-3,,,,,-120.4999983E-3,4.40000010,
,,,-120.3999966E-3,-18.0000011E-3,,,,,-120.3999966E-3,4.40000010,
,,,-120.3000024E-3,-16.0000008E-3,,,,,-120.3000024E-3,4.40000010,
,,,-120.2000007E-3,-20.0000014E-3,,,,,-120.2000007E-3,4.40000010,
,,,-120.0999990E-3,-20.0000014E-3,,,,,-120.0999990E-3,4.40000010,
,,,-119.9999973E-3,-22.00000174E-3,,,,,-119.9999973E-3,4.59999990,
,,,-119.9000031E-3,-20.0000014E-3,,,,,-119.9000031E-3,4.59999990,
,,,-119.8000014E-3,-16.0000008E-3,,,,,-119.8000014E-3,4.40000010,
,,,-119.6999997E-3,-16.0000008E-3,,,,,-119.6999997E-3,4.40000010,
,,,-119.5999980E-3,-22.00000174E-3,,,,,-119.5999980E-3,4.59999990,
,,,-119.5000038E-3,-20.0000014E-3,,,,,-119.5000038E-3,4.59999990,
,,,-119.4000021E-3,-20.0000014E-3,,,,,-119.4000021E-3,4.59999990,
,,,-119.3000004E-3,-20.0000014E-3,,,,,-119.3000004E-3,4.59999990,
,,,-119.1999987E-3,-18.0000011E-3,,,,,-119.1999987E-3,4.59999990,
,,,-119.0999970E-3,-18.0000011E-3,,,,,-119.0999970E-3,4.59999990,
,,,-119.0000027E-3,-20.0000014E-3,,,,,-119.0000027E-3,4.59999990,
,,,-118.9000010E-3,-20.0000014E-3,,,,,-118.9000010E-3,4.59999990,
,,,-118.7999994E-3,-20.0000014E-3,,,,,-118.7999994E-3,4.59999990,
,,,-118.6999977E-3,-20.0000014E-3,,,,,-118.6999977E-3,4.59999990,
,,,-118.6000034E-3,-20.0000014E-3,,,,,-118.6000034E-3,4.59999990,
,,,-118.5000017E-3,-18.0000011E-3,,,,,-118.5000017E-3,4.59999990,
,,,-118.4000000E-3,-20.0000014E-3,,,,,-118.4000000E-3,4.59999990,
,,,-118.2999983E-3,-20.0000014E-3,,,,,-118.2999983E-3,4.59999990,
,,,-118.1999967E-3,-20.0000014E-3,,,,,-118.1999967E-3,4.80000019,
,,,-118.1000024E-3,-18.0000011E-3,,,,,-118.1000024E-3,4.80000019,
,,,-118.0000007E-3,-18.0000011E-3,,,,,-118.0000007E-3,4.80000019,
,,,-117.8999990E-3,-18.0000011E-3,,,,,-117.8999990E-3,4.80000019,
,,,-117.7999973E-3,-18.0000011E-3,,,,,-117.7999973E-3,4.80000019,
,,,-117.7000031E-3,-18.0000011E-3,,,,,-117.7000031E-3,4.80000019,
,,,-117.6000014E-3,-16.0000008E-3,,,,,-117.6000014E-3,4.80000019,
,,,-117.4999997E-3,-18.0000011E-3,,,,,-117.4999997E-3,4.80000019,
,,,-117.3999980E-3,-18.0000011E-3,,,,,-117.3999980E-3,4.80000019,
,,,-117.3000038E-3,-18.0000011E-3,,,,,-117.3000038E-3,4.80000019,
,,,-117.2000021E-3,-22.00000174E-3,,,,,-117.2000021E-3,4.80000019,
,,,-117.1000004E-3,-20.0000014E-3,,,,,-117.1000004E-3,4.80000019,
,,,-116.9999987E-3,-20.0000014E-3,,,,,-116.9999987E-3,5.00000000,
,,,-116.8999970E-3,-18.0000011E-3,,,,,-116.8999970E-3,4.80000019,
,,,-116.8000028E-3,-20.0000014E-3,,,,,-116.8000028E-3,5.00000000,
,,,-116.7000011E-3,-20.0000014E-3,,,,,-116.7000011E-3,5.00000000,
,,,-116.5999994E-3,-18.0000011E-3,,,,,-116.5999994E-3,5.00000000,
,,,-116.4999977E-3,-20.0000014E-3,,,,,-116.4999977E-3,4.80000019,
,,,-116.4000034E-3,-18.0000011E-3,,,,,-116.4000034E-3,5.00000000,
,,,-116.3000017E-3,-18.0000011E-3,,,,,-116.3000017E-3,5.00000000,
,,,-116.2000000E-3,-20.0000014E-3,,,,,-116.2000000E-3,5.00000000,
,,,-116.0999984E-3,-20.0000014E-3,,,,,-116.0999984E-3,5.00000000,
,,,-115.9999967E-3,-18.0000011E-3,,,,,-115.9999967E-3,5.00000000,
,,,-115.9000024E-3,-18.0000011E-3,,,,,-115.9000024E-3,5.00000000,
,,,-115.8000007E-3,-16.0000008E-3,,,,,-115.8000007E-3,5.00000000,
,,,-115.6999990E-3,-18.0000011E-3,,,,,-115.6999990E-3,5.00000000,
,,,-115.5999973E-3,-18.0000011E-3,,,,,-115.5999973E-3,5.00000000,
,,,-115.5000031E-3,-18.0000011E-3,,,,,-115.5000031E-3,5.00000000,
,,,-115.4000014E-3,-18.0000011E-3,,,,,-115.4000014E-3,5.00000000,
,,,-115.2999997E-3,-20.0000014E-3,,,,,-115.2999997E-3,5.00000000,
,,,-115.1999980E-3,-18.0000011E-3,,,,,-115.1999980E-3,5.00000000,
,,,-115.1000038E-3,-20.0000014E-3,,,,,-115.1000038E-3,5.00000000,
,,,-115.0000021E-3,-20.0000014E-3,,,,,-115.0000021E-3,5.20000029,
,,,-114.9000004E-3,-20.0000014E-3,,,,,-114.9000004E-3,5.20000029,
,,,-114.7999987E-3,-20.0000014E-3,,,,,-114.7999987E-3,5.00000000,
,,,-114.6999970E-3,-20.0000014E-3,,,,,-114.6999970E-3,5.20000029,
,,,-114.6000028E-3,-16.0000008E-3,,,,,-114.6000028E-3,5.20000029,
,,,-114.5000011E-3,-16.0000008E-3,,,,,-114.5000011E-3,5.20000029,
,,,-114.3999994E-3,-18.0000011E-3,,,,,-114.3999994E-3,5.20000029,
,,,-114.2999977E-3,-18.0000011E-3,,,,,-114.2999977E-3,5.20000029,
,,,-114.2000034E-3,-20.0000014E-3,,,,,-114.2000034E-3,5.20000029,
,,,-114.1000018E-3,-20.0000014E-3,,,,,-114.1000018E-3,5.20000029,
,,,-114.0000001E-3,-18.0000011E-3,,,,,-114.0000001E-3,5.20000029,
,,,-113.8999984E-3,-16.0000008E-3,,,,,-113.8999984E-3,5.20000029,
,,,-113.7999967E-3,-20.0000014E-3,,,,,-113.7999967E-3,5.20000029,
,,,-113.7000024E-3,-20.0000014E-3,,,,,-113.7000024E-3,5.20000029,
,,,-113.6000007E-3,-20.0000014E-3,,,,,-113.6000007E-3,5.20000029,
,,,-113.4999990E-3,-20.0000014E-3,,,,,-113.4999990E-3,5.20000029,
,,,-113.3999974E-3,-20.0000014E-3,,,,,-113.3999974E-3,5.40000010,
,,,-113.3000031E-3,-20.0000014E-3,,,,,-113.3000031E-3,5.40000010,
,,,-113.2000014E-3,-16.0000008E-3,,,,,-113.2000014E-3,5.20000029,
,,,-113.0999997E-3,-18.0000011E-3,,,,,-113.0999997E-3,5.40000010,
,,,-112.9999980E-3,-20.0000014E-3,,,,,-112.9999980E-3,5.40000010,
,,,-112.9000038E-3,-20.0000014E-3,,,,,-112.9000038E-3,5.40000010,
,,,-112.8000021E-3,-20.0000014E-3,,,,,-112.8000021E-3,5.40000010,
,,,-112.7000004E-3,-18.0000011E-3,,,,,-112.7000004E-3,5.40000010,
,,,-112.5999987E-3,-20.0000014E-3,,,,,-112.5999987E-3,5.40000010,
,,,-112.4999970E-3,-20.0000014E-3,,,,,-112.4999970E-3,5.40000010,
,,,-112.4000028E-3,-20.0000014E-3,,,,,-112.4000028E-3,5.40000010,
,,,-112.3000011E-3,-18.0000011E-3,,,,,-112.3000011E-3,5.40000010,
,,,-112.1999994E-3,-20.0000014E-3,,,,,-112.1999994E-3,5.59999990,
,,,-112.0999977E-3,-20.0000014E-3,,,,,-112.0999977E-3,5.40000010,
,,,-112.0000035E-3,-20.0000014E-3,,,,,-112.0000035E-3,5.59999990,
,,,-111.9000018E-3,-22.00000174E-3,,,,,-111.9000018E-3,5.59999990,
,,,-111.8000001E-3,-20.0000014E-3,,,,,-111.8000001E-3,5.59999990,
,,,-111.6999984E-3,-20.0000014E-3,,,,,-111.6999984E-3,5.59999990,
,,,-111.5999967E-3,-20.0000014E-3,,,,,-111.5999967E-3,5.59999990,
,,,-111.5000024E-3,-18.0000011E-3,,,,,-111.5000024E-3,5.59999990,
,,,-111.4000008E-3,-20.0000014E-3,,,,,-111.4000008E-3,5.59999990,
,,,-111.2999991E-3,-20.0000014E-3,,,,,-111.2999991E-3,5.59999990,
,,,-111.1999974E-3,-20.0000014E-3,,,,,-111.1999974E-3,5.59999990,
,,,-111.1000031E-3,-18.0000011E-3,,,,,-111.1000031E-3,5.59999990,
,,,-111.0000014E-3,-18.0000011E-3,,,,,-111.0000014E-3,5.59999990,
,,,-110.8999997E-3,-20.0000014E-3,,,,,-110.8999997E-3,5.59999990,
,,,-110.7999980E-3,-18.0000011E-3,,,,,-110.7999980E-3,5.59999990,
,,,-110.7000038E-3,-20.0000014E-3,,,,,-110.7000038E-3,5.59999990,
,,,-110.6000021E-3,-18.0000011E-3,,,,,-110.6000021E-3,5.59999990,
,,,-110.5000004E-3,-18.0000011E-3,,,,,-110.5000004E-3,5.59999990,
,,,-110.3999987E-3,-20.0000014E-3,,,,,-110.3999987E-3,5.80000019,
,,,-110.2999970E-3,-16.0000008E-3,,,,,-110.2999970E-3,5.59999990,
,,,-110.2000028E-3,-18.0000011E-3,,,,,-110.2000028E-3,5.80000019,
,,,-110.1000011E-3,-18.0000011E-3,,,,,-110.1000011E-3,5.59999990,
,,,-109.9999994E-3,-18.0000011E-3,,,,,-109.9999994E-3,5.59999990,
,,,-109.8999977E-3,-16.0000008E-3,,,,,-109.8999977E-3,5.80000019,
,,,-109.8000035E-3,-16.0000008E-3,,,,,-109.8000035E-3,5.80000019,
,,,-109.7000018E-3,-20.0000014E-3,,,,,-109.7000018E-3,5.59999990,
,,,-109.6000001E-3,-20.0000014E-3,,,,,-109.6000001E-3,5.80000019,
,,,-109.4999984E-3,-18.0000011E-3,,,,,-109.4999984E-3,5.80000019,
,,,-109.3999967E-3,-16.0000008E-3,,,,,-109.3999967E-3,5.80000019,
,,,-109.3000025E-3,-18.0000011E-3,,,,,-109.3000025E-3,5.80000019,
,,,-109.2000008E-3,-18.0000011E-3,,,,,-109.2000008E-3,5.80000019,
,,,-109.0999991E-3,-20.0000014E-3,,,,,-109.0999991E-3,5.80000019,
,,,-108.9999974E-3,-16.0000008E-3,,,,,-108.9999974E-3,5.80000019,
,,,-108.9000031E-3,-18.0000011E-3,,,,,-108.9000031E-3,6.00000000,
,,,-108.8000014E-3,-18.0000011E-3,,,,,-108.8000014E-3,6.00000000,
,,,-108.6999997E-3,-20.0000014E-3,,,,,-108.6999997E-3,6.00000000,
,,,-108.5999981E-3,-16.0000008E-3,,,,,-108.5999981E-3,6.00000000,
,,,-108.5000038E-3,-20.0000014E-3,,,,,-108.5000038E-3,5.80000019,
,,,-108.4000021E-3,-18.0000011E-3,,,,,-108.4000021E-3,6.00000000,
,,,-108.3000004E-3,-18.0000011E-3,,,,,-108.3000004E-3,6.00000000,
,,,-108.1999987E-3,-20.0000014E-3,,,,,-108.1999987E-3,6.00000000,
,,,-108.0999970E-3,-16.0000008E-3,,,,,-108.0999970E-3,6.00000000,
,,,-108.0000028E-3,-18.0000011E-3,,,,,-108.0000028E-3,6.00000000,
,,,-107.9000011E-3,-16.0000008E-3,,,,,-107.9000011E-3,6.00000000,
,,,-107.7999994E-3,-16.0000008E-3,,,,,-107.7999994E-3,6.00000000,
,,,-107.6999977E-3,-16.0000008E-3,,,,,-107.6999977E-3,6.00000000,
,,,-107.6000035E-3,-16.0000008E-3,,,,,-107.6000035E-3,6.00000000,
,,,-107.5000018E-3,-18.0000011E-3,,,,,-107.5000018E-3,6.20000029,
,,,-107.4000001E-3,-16.0000008E-3,,,,,-107.4000001E-3,6.00000000,
,,,-107.2999984E-3,-16.0000008E-3,,,,,-107.2999984E-3,6.00000000,
,,,-107.2000042E-3,-16.0000008E-3,,,,,-107.2000042E-3,6.20000029,
,,,-107.1000025E-3,-14.0000004E-3,,,,,-107.1000025E-3,6.20000029,
,,,-107.0000008E-3,-16.0000008E-3,,,,,-107.0000008E-3,6.20000029,
,,,-106.8999991E-3,-16.0000008E-3,,,,,-106.8999991E-3,6.20000029,
,,,-106.7999974E-3,-12.0000001E-3,,,,,-106.7999974E-3,6.20000029,
,,,-106.7000031E-3,-14.0000004E-3,,,,,-106.7000031E-3,6.20000029,
,,,-106.6000015E-3,-16.0000008E-3,,,,,-106.6000015E-3,6.20000029,
,,,-106.4999998E-3,-14.0000004E-3,,,,,-106.4999998E-3,6.20000029,
,,,-106.3999981E-3,-12.0000001E-3,,,,,-106.3999981E-3,6.20000029,
,,,-106.3000038E-3,-14.0000004E-3,,,,,-106.3000038E-3,6.40000010,
,,,-106.2000021E-3,-14.0000004E-3,,,,,-106.2000021E-3,6.20000029,
,,,-106.1000004E-3,-10.0000007E-3,,,,,-106.1000004E-3,6.20000029,
,,,-105.9999987E-3,-10.0000007E-3,,,,,-105.9999987E-3,6.40000010,
,,,-105.8999971E-3,-8.000000380E-3,,,,,-105.8999971E-3,6.20000029,
,,,-105.8000028E-3,-6.00000005E-3,,,,,-105.8000028E-3,6.20000029,
,,,-105.7000011E-3,-8.000000380E-3,,,,,-105.7000011E-3,6.20000029,
,,,-105.5999994E-3,-6.00000005E-3,,,,,-105.5999994E-3,6.40000010,
,,,-105.4999977E-3,-4.00000019E-3,,,,,-105.4999977E-3,6.40000010,
,,,-105.4000035E-3,-6.00000005E-3,,,,,-105.4000035E-3,6.40000010,
,,,-105.3000018E-3,-2.0000001E-3,,,,,-105.3000018E-3,6.40000010,
,,,-105.2000001E-3,0.0,,,,,-105.2000001E-3,6.40000010,
,,,-105.0999984E-3,4.00000019E-3,,,,,-105.0999984E-3,6.40000010,
,,,-105.0000042E-3,4.00000019E-3,,,,,-105.0000042E-3,6.40000010,
,,,-104.9000025E-3,12.0000001E-3,,,,,-104.9000025E-3,6.40000010,
,,,-104.8000008E-3,12.0000001E-3,,,,,-104.8000008E-3,6.40000010,
,,,-104.6999991E-3,16.0000008E-3,,,,,-104.6999991E-3,6.40000010,
,,,-104.5999974E-3,20.0000014E-3,,,,,-104.5999974E-3,6.59999990,
,,,-104.5000032E-3,20.0000014E-3,,,,,-104.5000032E-3,6.40000010,
,,,-104.4000015E-3,26.00000054E-3,,,,,-104.4000015E-3,6.40000010,
,,,-104.2999998E-3,28.00000086E-3,,,,,-104.2999998E-3,6.59999990,
,,,-104.1999981E-3,36.00000218E-3,,,,,-104.1999981E-3,6.59999990,
,,,-104.1000038E-3,36.00000218E-3,,,,,-104.1000038E-3,6.40000010,
,,,-104.0000021E-3,40.00000283E-3,,,,,-104.0000021E-3,6.59999990,
,,,-103.9000005E-3,50.00000075E-3,,,,,-103.9000005E-3,6.59999990,
,,,-103.7999988E-3,32.00000152E-3,,,,,-103.7999988E-3,6.59999990,
,,,-103.6999971E-3,8.000000380E-3,,,,,-103.6999971E-3,6.59999990,
,,,-103.6000028E-3,-8.000000380E-3,,,,,-103.6000028E-3,6.59999990,
,,,-103.5000011E-3,-14.0000004E-3,,,,,-103.5000011E-3,6.59999990,
,,,-103.3999994E-3,-16.0000008E-3,,,,,-103.3999994E-3,6.59999990,
,,,-103.2999977E-3,-16.0000008E-3,,,,,-103.2999977E-3,6.59999990,
,,,-103.2000035E-3,-18.0000011E-3,,,,,-103.2000035E-3,6.80000019,
,,,-103.1000018E-3,-16.0000008E-3,,,,,-103.1000018E-3,6.59999990,
,,,-103.0000001E-3,-16.0000008E-3,,,,,-103.0000001E-3,6.80000019,
,,,-102.8999984E-3,-16.0000008E-3,,,,,-102.8999984E-3,6.59999990,
,,,-102.8000042E-3,-18.0000011E-3,,,,,-102.8000042E-3,6.80000019,
,,,-102.7000025E-3,-14.0000004E-3,,,,,-102.7000025E-3,6.80000019,
,,,-102.6000008E-3,-18.0000011E-3,,,,,-102.6000008E-3,6.80000019,
,,,-102.4999991E-3,-18.0000011E-3,,,,,-102.4999991E-3,6.80000019,
,,,-102.3999974E-3,-18.0000011E-3,,,,,-102.3999974E-3,6.80000019,
,,,-102.3000032E-3,-18.0000011E-3,,,,,-102.3000032E-3,6.80000019,
,,,-102.2000015E-3,-18.0000011E-3,,,,,-102.2000015E-3,6.80000019,
,,,-102.0999998E-3,-16.0000008E-3,,,,,-102.0999998E-3,6.80000019,
,,,-101.9999981E-3,-18.0000011E-3,,,,,-101.9999981E-3,6.80000019,
,,,-101.9000039E-3,-16.0000008E-3,,,,,-101.9000039E-3,6.80000019,
,,,-101.8000022E-3,-16.0000008E-3,,,,,-101.8000022E-3,6.80000019,
,,,-101.7000005E-3,-18.0000011E-3,,,,,-101.7000005E-3,6.80000019,
,,,-101.5999988E-3,-20.0000014E-3,,,,,-101.5999988E-3,6.80000019,
,,,-101.4999971E-3,-16.0000008E-3,,,,,-101.4999971E-3,6.80000019,
,,,-101.4000028E-3,-18.0000011E-3,,,,,-101.4000028E-3,6.80000019,
,,,-101.3000011E-3,-14.0000004E-3,,,,,-101.3000011E-3,6.80000019,
,,,-101.1999995E-3,-18.0000011E-3,,,,,-101.1999995E-3,7.00000000,
,,,-101.0999978E-3,-16.0000008E-3,,,,,-101.0999978E-3,7.00000000,
,,,-101.0000035E-3,-16.0000008E-3,,,,,-101.0000035E-3,7.00000000,
,,,-100.9000018E-3,-14.0000004E-3,,,,,-100.9000018E-3,7.00000000,
,,,-100.8000001E-3,-20.0000014E-3,,,,,-100.8000001E-3,6.80000019,
,,,-100.6999984E-3,-18.0000011E-3,,,,,-100.6999984E-3,7.00000000,
,,,-100.6000042E-3,-16.0000008E-3,,,,,-100.6000042E-3,7.00000000,
,,,-100.5000025E-3,-16.0000008E-3,,,,,-100.5000025E-3,7.00000000,
,,,-100.4000008E-3,-18.0000011E-3,,,,,-100.4000008E-3,7.20000029,
,,,-100.2999991E-3,-16.0000008E-3,,,,,-100.2999991E-3,7.00000000,
,,,-100.1999974E-3,-18.0000011E-3,,,,,-100.1999974E-3,7.00000000,
,,,-100.1000032E-3,-16.0000008E-3,,,,,-100.1000032E-3,7.00000000,
,,,-100.0000015E-3,-16.0000008E-3,,,,,-100.0000015E-3,7.20000029,
,,,-99.899999797E-3,-14.0000004E-3,,,,,-99.899999797E-3,7.20000029,
,,,-99.799998105E-3,-16.0000008E-3,,,,,-99.799998105E-3,7.20000029,
,,,-99.700003862E-3,-16.0000008E-3,,,,,-99.700003862E-3,7.20000029,
,,,-99.600002170E-3,-18.0000011E-3,,,,,-99.600002170E-3,7.20000029,
,,,-99.500000477E-3,-18.0000011E-3,,,,,-99.500000477E-3,7.20000029,
,,,-99.399998784E-3,-16.0000008E-3,,,,,-99.399998784E-3,7.20000029,
,,,-99.299997091E-3,-16.0000008E-3,,,,,-99.299997091E-3,7.20000029,
,,,-99.200002849E-3,-18.0000011E-3,,,,,-99.200002849E-3,7.20000029,
,,,-99.100001156E-3,-20.0000014E-3,,,,,-99.100001156E-3,7.20000029,
,,,-98.999999464E-3,-18.0000011E-3,,,,,-98.999999464E-3,7.20000029,
,,,-98.899997771E-3,-18.0000011E-3,,,,,-98.899997771E-3,7.20000029,
,,,-98.800003529E-3,-16.0000008E-3,,,,,-98.800003529E-3,7.20000029,
,,,-98.700001836E-3,-16.0000008E-3,,,,,-98.700001836E-3,7.20000029,
,,,-98.600000143E-3,-20.0000014E-3,,,,,-98.600000143E-3,7.20000029,
,,,-98.499998450E-3,-18.0000011E-3,,,,,-98.499998450E-3,7.20000029,
,,,-98.400004208E-3,-16.0000008E-3,,,,,-98.400004208E-3,7.20000029,
,,,-98.300002515E-3,-16.0000008E-3,,,,,-98.300002515E-3,7.20000029,
,,,-98.200000823E-3,-16.0000008E-3,,,,,-98.200000823E-3,7.400000095,
,,,-98.099999130E-3,-16.0000008E-3,,,,,-98.099999130E-3,7.20000029,
,,,-97.999997437E-3,-16.0000008E-3,,,,,-97.999997437E-3,7.400000095,
,,,-97.900003195E-3,-12.0000001E-3,,,,,-97.900003195E-3,7.400000095,
,,,-97.800001502E-3,-14.0000004E-3,,,,,-97.800001502E-3,7.20000029,
,,,-97.699999809E-3,-14.0000004E-3,,,,,-97.699999809E-3,7.400000095,
,,,-97.599998116E-3,-14.0000004E-3,,,,,-97.599998116E-3,7.400000095,
,,,-97.500003874E-3,-14.0000004E-3,,,,,-97.500003874E-3,7.400000095,
,,,-97.400002182E-3,-14.0000004E-3,,,,,-97.400002182E-3,7.400000095,
,,,-97.300000489E-3,-14.0000004E-3,,,,,-97.300000489E-3,7.400000095,
,,,-97.199998796E-3,-8.000000380E-3,,,,,-97.199998796E-3,7.400000095,
,,,-97.099997103E-3,-8.000000380E-3,,,,,-97.099997103E-3,7.400000095,
,,,-97.000002861E-3,-12.0000001E-3,,,,,-97.000002861E-3,7.400000095,
,,,-96.900001168E-3,-8.000000380E-3,,,,,-96.900001168E-3,7.599999905,
,,,-96.799999475E-3,-2.0000001E-3,,,,,-96.799999475E-3,7.599999905,
,,,-96.699997783E-3,-2.0000001E-3,,,,,-96.699997783E-3,7.599999905,
,,,-96.600003541E-3,-10.0000007E-3,,,,,-96.600003541E-3,7.599999905,
,,,-96.500001848E-3,-16.0000008E-3,,,,,-96.500001848E-3,7.599999905,
,,,-96.400000155E-3,-18.0000011E-3,,,,,-96.400000155E-3,7.599999905,
,,,-96.299998462E-3,-18.0000011E-3,,,,,-96.299998462E-3,7.599999905,
,,,-96.200004220E-3,-16.0000008E-3,,,,,-96.200004220E-3,7.599999905,
,,,-96.100002527E-3,-16.0000008E-3,,,,,-96.100002527E-3,7.599999905,
,,,-96.000000834E-3,-16.0000008E-3,,,,,-96.000000834E-3,7.599999905,
,,,-95.899999142E-3,-14.0000004E-3,,,,,-95.899999142E-3,7.599999905,
